module danceEndlessly

//go 1.16
go 1.17

require (
	github.com/mattn/go-sqlite3 v1.14.8
	modernc.org/sqlite v1.12.0
)

require (
	github.com/kballard/go-shellquote v0.0.0-20180428030007-95032a82bc51 // indirect
	github.com/mattn/go-isatty v0.0.12 // indirect
	github.com/remyoudompheng/bigfft v0.0.0-20200410134404-eec4a21b6bb0 // indirect
	golang.org/x/mod v0.3.0 // indirect
	golang.org/x/sys v0.0.0-20210124154548-22da62e12c0c // indirect
	golang.org/x/tools v0.0.0-20201124115921-2c860bdd6e78 // indirect
	golang.org/x/xerrors v0.0.0-20200804184101-5ec99f83aff1 // indirect
	lukechampine.com/uint128 v1.1.1 // indirect
	modernc.org/cc/v3 v3.33.7 // indirect
	modernc.org/ccgo/v3 v3.9.6 // indirect
	modernc.org/libc v1.9.11 // indirect
	modernc.org/mathutil v1.4.1 // indirect
	modernc.org/memory v1.0.4 // indirect
	modernc.org/opt v0.1.1 // indirect
	modernc.org/strutil v1.1.1 // indirect
	modernc.org/token v1.0.0 // indirect
)
